<?xml version="1.0" encoding="UTF-8" standalone="no"?>
<!-- Generated by SVGo -->

<svg
   xmlns:dc="http://purl.org/dc/elements/1.1/"
   xmlns:cc="http://creativecommons.org/ns#"
   xmlns:rdf="http://www.w3.org/1999/02/22-rdf-syntax-ns#"
   xmlns:svg="http://www.w3.org/2000/svg"
   xmlns="http://www.w3.org/2000/svg"
   xmlns:sodipodi="http://sodipodi.sourceforge.net/DTD/sodipodi-0.dtd"
   xmlns:inkscape="http://www.inkscape.org/namespaces/inkscape"
   width="238.600mm"
   height="86.200mm"
   viewBox="0.000 0.000 238.600 86.200"
   id="svg2"
   version="1.1"
   inkscape:version="0.91 r13725"
   sodipodi:docname="04 - bottom.svg">
  <sodipodi:namedview
     pagecolor="#ffffff"
     bordercolor="#666666"
     borderopacity="1"
     objecttolerance="10"
     gridtolerance="10"
     guidetolerance="10"
     inkscape:pageopacity="0"
     inkscape:pageshadow="2"
     inkscape:window-width="1366"
     inkscape:window-height="705"
     id="namedview102"
     showgrid="false"
     inkscape:zoom="0.5"
     inkscape:cx="177.43318"
     inkscape:cy="94.643117"
     inkscape:window-x="-8"
     inkscape:window-y="-8"
     inkscape:window-maximized="1"
     inkscape:current-layer="svg2" />
  <metadata
     id="metadata106">
    <rdf:RDF>
      <cc:Work
         rdf:about="">
        <dc:format>image/svg+xml</dc:format>
        <dc:type
           rdf:resource="http://purl.org/dc/dcmitype/StillImage" />
        <dc:title></dc:title>
      </cc:Work>
    </rdf:RDF>
  </metadata>
  <defs
     id="defs104" />
  <path
     style="fill:#0000ff;fill-opacity:1;stroke:#000000;stroke-width:0.70866144"
     d="M 17.716797 17.716797 L 17.716797 287.7168 L 827.7168 287.7168 L 827.7168 17.716797 L 17.716797 17.716797 z M 280.90625 77.267578 L 296.29688 77.267578 L 296.29688 92.660156 L 280.90625 92.660156 L 280.90625 77.267578 z M 77.384766 77.423828 L 92.775391 77.423828 L 92.775391 92.814453 L 77.384766 92.814453 L 77.384766 77.423828 z M 549.87891 77.628906 L 565.27148 77.628906 L 565.27148 93.019531 L 549.87891 93.019531 L 549.87891 77.628906 z M 751.90039 77.892578 L 767.29102 77.892578 L 767.29102 93.283203 L 751.90039 93.283203 L 751.90039 77.892578 z M 280.95312 212.45703 L 296.34375 212.45703 L 296.34375 227.84766 L 280.95312 227.84766 L 280.95312 212.45703 z M 77.429688 212.61328 L 92.820312 212.61328 L 92.820312 228.00391 L 77.429688 228.00391 L 77.429688 212.61328 z M 549.92578 212.81836 L 565.31641 212.81836 L 565.31641 228.20898 L 549.92578 228.20898 L 549.92578 212.81836 z M 751.94531 213.08008 L 767.33789 213.08008 L 767.33789 228.4707 L 751.94531 228.4707 L 751.94531 213.08008 z "
     transform="scale(0.28222222,0.2822222)"
     id="polygon4" />
</svg>
