<?xml version="1.0" encoding="utf-8"?>
<!-- Generator: Adobe Illustrator 15.0.0, SVG Export Plug-In . SVG Version: 6.00 Build 0)  -->
<!DOCTYPE svg PUBLIC "-//W3C//DTD SVG 1.1//EN" "http://www.w3.org/Graphics/SVG/1.1/DTD/svg11.dtd">
<svg version="1.1" id="Layer_1" xmlns="http://www.w3.org/2000/svg" xmlns:xlink="http://www.w3.org/1999/xlink" x="0px" y="0px"
	 width="676.347px" height="244.348px" viewBox="0 0 676.347 244.348" enable-background="new 0 0 676.347 244.348"
	 xml:space="preserve">
<polygon fill="none" stroke="#000000" stroke-width="0.2" points="662.173,14.173 662.173,230.173 14.173,230.173 14.173,14.173 "/>
<polygon fill="none" stroke="#000000" stroke-width="0.2" points="21.331,61.016 21.331,21.331 61.016,21.331 61.016,61.016 "/>
<polygon fill="none" stroke="#000000" stroke-width="0.2" points="21.331,115.016 21.331,75.331 61.016,75.331 61.016,115.016 "/>
<polygon fill="none" stroke="#000000" stroke-width="0.2" points="21.331,169.015 21.331,129.331 61.016,129.331 61.016,169.015 "/>
<polygon fill="none" stroke="#000000" stroke-width="0.2" points="21.331,223.015 21.331,183.331 61.016,183.331 61.016,223.015 "/>
<polygon fill="none" stroke="#000000" stroke-width="0.2" points="75.331,61.016 75.331,21.331 115.016,21.331 115.016,61.016 "/>
<polygon fill="none" stroke="#000000" stroke-width="0.2" points="75.331,115.016 75.331,75.331 115.016,75.331 115.016,115.016 "/>
<polygon fill="none" stroke="#000000" stroke-width="0.2" points="75.331,169.015 75.331,129.331 115.016,129.331 115.016,169.015 
	"/>
<polygon fill="none" stroke="#000000" stroke-width="0.2" points="75.331,223.015 75.331,183.331 115.016,183.331 115.016,223.015 
	"/>
<polygon fill="none" stroke="#000000" stroke-width="0.2" points="129.331,61.016 129.331,21.331 169.016,21.331 169.016,61.016 "/>
<polygon fill="none" stroke="#000000" stroke-width="0.2" points="129.331,115.016 129.331,75.331 169.016,75.331 169.016,115.016 
	"/>
<polygon fill="none" stroke="#000000" stroke-width="0.2" points="129.331,169.015 129.331,129.331 169.016,129.331 
	169.016,169.015 "/>
<polygon fill="none" stroke="#000000" stroke-width="0.2" points="129.331,223.015 129.331,183.331 169.016,183.331 
	169.016,223.015 "/>
<polygon fill="none" stroke="#000000" stroke-width="0.2" points="183.331,61.016 183.331,21.331 223.016,21.331 223.016,61.016 "/>
<polygon fill="none" stroke="#000000" stroke-width="0.2" points="183.331,115.016 183.331,75.331 223.016,75.331 223.016,115.016 
	"/>
<polygon fill="none" stroke="#000000" stroke-width="0.2" points="183.331,169.015 183.331,129.331 223.016,129.331 
	223.016,169.015 "/>
<polygon fill="none" stroke="#000000" stroke-width="0.2" points="183.331,223.015 183.331,183.331 223.016,183.331 
	223.016,223.015 "/>
<polygon fill="none" stroke="#000000" stroke-width="0.2" points="237.331,61.016 237.331,21.331 277.016,21.331 277.016,61.016 "/>
<polygon fill="none" stroke="#000000" stroke-width="0.2" points="237.331,115.016 237.331,75.331 277.016,75.331 277.016,115.016 
	"/>
<polygon fill="none" stroke="#000000" stroke-width="0.2" points="237.331,169.015 237.331,129.331 277.016,129.331 
	277.016,169.015 "/>
<polygon fill="none" stroke="#000000" stroke-width="0.2" points="237.331,223.015 237.331,183.331 277.016,183.331 
	277.016,223.015 "/>
<polygon fill="none" stroke="#000000" stroke-width="0.2" points="291.331,61.016 291.331,21.331 331.016,21.331 331.016,61.016 "/>
<polygon fill="none" stroke="#000000" stroke-width="0.2" points="291.331,115.016 291.331,75.331 331.016,75.331 331.016,115.016 
	"/>
<polygon fill="none" stroke="#000000" stroke-width="0.2" points="291.331,169.015 291.331,129.331 331.016,129.331 
	331.016,169.015 "/>
<polygon fill="none" stroke="#000000" stroke-width="0.2" points="291.331,223.015 291.331,183.331 331.016,183.331 
	331.016,223.015 "/>
<polygon fill="none" stroke="#000000" stroke-width="0.2" points="345.332,61.016 345.332,21.331 385.015,21.331 385.015,61.016 "/>
<polygon fill="none" stroke="#000000" stroke-width="0.2" points="345.332,115.016 345.332,75.331 385.015,75.331 385.015,115.016 
	"/>
<polygon fill="none" stroke="#000000" stroke-width="0.2" points="345.332,169.015 345.332,129.331 385.015,129.331 
	385.015,169.015 "/>
<polygon fill="none" stroke="#000000" stroke-width="0.2" points="345.332,223.015 345.332,183.331 385.015,183.331 
	385.015,223.015 "/>
<polygon fill="none" stroke="#000000" stroke-width="0.2" points="399.332,61.016 399.332,21.331 439.015,21.331 439.015,61.016 "/>
<polygon fill="none" stroke="#000000" stroke-width="0.2" points="399.332,115.016 399.332,75.331 439.015,75.331 439.015,115.016 
	"/>
<polygon fill="none" stroke="#000000" stroke-width="0.2" points="399.332,169.015 399.332,129.331 439.015,129.331 
	439.015,169.015 "/>
<polygon fill="none" stroke="#000000" stroke-width="0.2" points="399.332,223.015 399.332,183.331 439.015,183.331 
	439.015,223.015 "/>
<polygon fill="none" stroke="#000000" stroke-width="0.2" points="453.332,61.016 453.332,21.331 493.015,21.331 493.015,61.016 "/>
<polygon fill="none" stroke="#000000" stroke-width="0.2" points="453.332,115.016 453.332,75.331 493.015,75.331 493.015,115.016 
	"/>
<polygon fill="none" stroke="#000000" stroke-width="0.2" points="453.332,169.015 453.332,129.331 493.015,129.331 
	493.015,169.015 "/>
<polygon fill="none" stroke="#000000" stroke-width="0.2" points="453.332,223.015 453.332,183.331 493.015,183.331 
	493.015,223.015 "/>
<polygon fill="none" stroke="#000000" stroke-width="0.2" points="507.332,61.016 507.332,21.331 547.015,21.331 547.015,61.016 "/>
<polygon fill="none" stroke="#000000" stroke-width="0.2" points="507.332,115.016 507.332,75.331 547.015,75.331 547.015,115.016 
	"/>
<polygon fill="none" stroke="#000000" stroke-width="0.2" points="507.332,169.015 507.332,129.331 547.015,129.331 
	547.015,169.015 "/>
<polygon fill="none" stroke="#000000" stroke-width="0.2" points="507.332,223.015 507.332,183.331 547.015,183.331 
	547.015,223.015 "/>
<polygon fill="none" stroke="#000000" stroke-width="0.2" points="561.332,61.016 561.332,21.331 601.015,21.331 601.015,61.016 "/>
<polygon fill="none" stroke="#000000" stroke-width="0.2" points="561.332,115.016 561.332,75.331 601.015,75.331 601.015,115.016 
	"/>
<polygon fill="none" stroke="#000000" stroke-width="0.2" points="561.332,169.015 561.332,129.331 601.015,129.331 
	601.015,169.015 "/>
<polygon fill="none" stroke="#000000" stroke-width="0.2" points="561.332,223.015 561.332,183.331 601.015,183.331 
	601.015,223.015 "/>
<polygon fill="none" stroke="#000000" stroke-width="0.2" points="615.332,61.016 615.332,21.331 655.015,21.331 655.015,61.016 "/>
<polygon fill="none" stroke="#000000" stroke-width="0.2" points="615.332,115.016 615.332,75.331 655.015,75.331 655.015,115.016 
	"/>
<polygon fill="none" stroke="#000000" stroke-width="0.2" points="615.332,169.015 615.332,129.331 655.015,129.331 
	655.015,169.015 "/>
<polygon fill="none" stroke="#000000" stroke-width="0.2" points="615.332,223.015 615.332,183.331 655.015,183.331 
	655.015,223.015 "/>
<circle fill="none" stroke="#000000" stroke-width="0.2" cx="68.173" cy="68.173" r="4.25"/>
<circle fill="none" stroke="#000000" stroke-width="0.2" cx="68.173" cy="176.173" r="4.25"/>
<circle fill="none" stroke="#000000" stroke-width="0.2" cx="608.171" cy="176.173" r="4.25"/>
<circle fill="none" stroke="#000000" stroke-width="0.2" cx="608.171" cy="68.174" r="4.25"/>
<circle fill="none" stroke="#000000" stroke-width="0.2" cx="338.172" cy="176.173" r="4.25"/>
<circle fill="none" stroke="#000000" stroke-width="0.2" cx="338.172" cy="68.174" r="4.25"/>
</svg>
