<?xml version="1.0" encoding="utf-8"?>
<!-- Generator: Adobe Illustrator 15.0.0, SVG Export Plug-In . SVG Version: 6.00 Build 0)  -->
<!DOCTYPE svg PUBLIC "-//W3C//DTD SVG 1.1//EN" "http://www.w3.org/Graphics/SVG/1.1/DTD/svg11.dtd">
<svg version="1.1" id="Layer_1" xmlns="http://www.w3.org/2000/svg" xmlns:xlink="http://www.w3.org/1999/xlink" x="0px" y="0px"
	 width="676.347px" height="244.348px" viewBox="0 0 676.347 244.348" enable-background="new 0 0 676.347 244.348"
	 xml:space="preserve">
<g id="Layer_1_1_">
	<polygon fill="none" stroke="#000000" stroke-width="0.2" points="662.173,14.173 662.173,230.173 14.173,230.173 14.173,14.173 	
		"/>
	<circle fill="none" stroke="#000000" stroke-width="0.2" cx="68.173" cy="68.173" r="4.25"/>
	<circle fill="none" stroke="#000000" stroke-width="0.2" cx="68.173" cy="176.173" r="4.25"/>
	<circle fill="none" stroke="#000000" stroke-width="0.2" cx="608.171" cy="176.173" r="4.25"/>
	<circle fill="none" stroke="#000000" stroke-width="0.2" cx="608.171" cy="68.174" r="4.25"/>
	<circle fill="none" stroke="#000000" stroke-width="0.2" cx="338.172" cy="176.173" r="4.25"/>
	<circle fill="none" stroke="#000000" stroke-width="0.2" cx="338.172" cy="68.174" r="4.25"/>
	<polygon fill="#FFFFFF" stroke="#000000" stroke-width="0.2" stroke-miterlimit="10" points="655.015,61.016 655.015,21.331 
		615.332,21.331 615.332,61.016 624.841,61.016 624.841,75.331 615.332,75.331 615.332,86.674 601.015,86.674 601.015,75.331 
		589.339,75.331 589.339,61.016 601.015,61.016 601.015,21.331 561.332,21.331 561.332,61.016 570.841,61.016 570.841,75.331 
		561.332,75.331 561.332,86.674 547.015,86.674 547.015,75.331 535.339,75.331 535.339,61.016 547.015,61.016 547.015,21.331 
		507.332,21.331 507.332,61.016 516.841,61.016 516.841,75.331 507.332,75.331 507.332,83.507 493.015,83.507 493.015,75.331 
		481.339,75.331 481.339,61.016 493.015,61.016 493.015,21.331 453.332,21.331 453.332,61.016 462.841,61.016 462.841,75.331 
		453.332,75.331 453.332,83.507 439.015,83.507 439.015,75.331 427.339,75.331 427.339,61.016 439.015,61.016 439.015,21.331 
		399.332,21.331 399.332,61.016 408.841,61.016 408.841,75.331 399.332,75.331 399.332,83.507 385.015,83.507 385.015,75.331 
		373.339,75.331 373.339,61.016 385.015,61.016 385.015,21.331 345.332,21.331 345.332,61.016 354.841,61.016 354.841,75.331 
		345.332,75.331 345.332,83.507 331.016,83.507 331.016,75.331 319.34,75.331 319.34,61.016 331.016,61.016 331.016,21.331 
		291.331,21.331 291.331,61.016 300.841,61.016 300.841,75.331 291.331,75.331 291.331,83.507 277.016,83.507 277.016,75.331 
		265.34,75.331 265.34,61.016 277.016,61.016 277.016,21.331 237.331,21.331 237.331,61.016 246.841,61.016 246.841,75.331 
		237.331,75.331 237.331,86.674 223.016,86.674 223.016,75.331 211.34,75.331 211.34,61.016 223.016,61.016 223.016,21.331 
		183.331,21.331 183.331,61.016 192.841,61.016 192.841,75.331 183.331,75.331 183.331,86.674 169.016,86.674 169.016,75.331 
		157.34,75.331 157.34,61.016 169.016,61.016 169.016,21.331 129.331,21.331 129.331,61.016 138.841,61.016 138.841,75.331 
		129.331,75.331 129.331,86.674 115.016,86.674 115.016,75.331 103.34,75.331 103.34,61.016 115.016,61.016 115.016,21.331 
		75.331,21.331 75.331,61.016 84.841,61.016 84.841,75.331 75.331,75.331 75.331,86.674 61.016,86.674 61.016,75.331 49.34,75.331 
		49.34,61.016 61.016,61.016 61.016,21.331 21.331,21.331 21.331,61.016 30.841,61.016 30.841,75.331 21.331,75.331 21.331,115.016 
		30.841,115.016 30.841,129.331 21.331,129.331 21.331,169.015 30.841,169.015 30.841,183.331 21.331,183.331 21.331,223.015 
		61.016,223.015 61.016,183.331 49.34,183.331 49.34,169.015 61.016,169.015 61.016,129.331 49.34,129.331 49.34,115.016 
		61.016,115.016 61.016,92.674 75.331,92.674 75.331,115.016 84.841,115.016 84.841,129.331 75.331,129.331 75.331,169.015 
		84.841,169.015 84.841,183.331 75.331,183.331 75.331,223.015 115.016,223.015 115.016,183.331 103.34,183.331 103.34,169.015 
		115.016,169.015 115.016,129.331 103.34,129.331 103.34,115.016 115.016,115.016 115.016,95.507 129.331,95.507 129.331,115.016 
		138.841,115.016 138.841,129.331 129.331,129.331 129.331,169.015 138.841,169.015 138.841,183.331 129.331,183.331 
		129.331,223.015 169.016,223.015 169.016,183.331 157.34,183.331 157.34,169.015 169.016,169.015 169.016,129.331 157.34,129.331 
		157.34,115.016 169.016,115.016 169.016,98.674 183.331,98.674 183.331,115.016 192.841,115.016 192.841,129.331 183.331,129.331 
		183.331,169.015 192.841,169.015 192.841,183.331 183.331,183.331 183.331,223.015 223.016,223.015 223.016,183.331 
		211.34,183.331 211.34,169.015 223.016,169.015 223.016,129.331 211.34,129.331 211.34,115.016 223.016,115.016 223.016,101.84 
		237.331,101.84 237.331,115.016 246.841,115.016 246.841,129.331 237.331,129.331 237.331,169.015 246.841,169.015 
		246.841,183.331 237.331,183.331 237.331,223.015 277.016,223.015 277.016,183.331 265.34,183.331 265.34,169.015 277.016,169.015 
		277.016,129.331 265.34,129.331 265.34,115.016 277.016,115.016 277.016,101.84 291.331,101.84 291.331,115.016 300.841,115.016 
		300.841,129.331 291.331,129.331 291.331,169.015 300.841,169.015 300.841,183.331 291.331,183.331 291.331,223.015 
		331.016,223.015 331.016,183.331 319.34,183.331 319.34,169.015 331.016,169.015 331.016,129.331 319.34,129.331 319.34,115.016 
		331.016,115.016 331.016,105.007 345.332,105.007 345.332,115.016 354.841,115.016 354.841,129.331 345.332,129.331 
		345.332,169.015 354.841,169.015 354.841,183.331 345.332,183.331 345.332,223.015 385.015,223.015 385.015,183.331 
		373.339,183.331 373.339,169.015 385.015,169.015 385.015,129.331 373.339,129.331 373.339,115.016 385.015,115.016 
		385.015,105.007 399.332,105.007 399.332,115.016 408.841,115.016 408.841,129.331 399.332,129.331 399.332,169.015 
		408.841,169.015 408.841,183.331 399.332,183.331 399.332,223.015 439.015,223.015 439.015,183.331 427.339,183.331 
		427.339,169.015 439.015,169.015 439.015,129.331 427.339,129.331 427.339,115.016 439.015,115.016 439.015,105.007 
		453.332,105.007 453.332,115.016 462.841,115.016 462.841,129.331 453.332,129.331 453.332,169.015 462.841,169.015 
		462.841,183.331 453.332,183.331 453.332,223.015 493.015,223.015 493.015,183.331 481.339,183.331 481.339,169.015 
		493.015,169.015 493.015,129.331 481.339,129.331 481.339,115.016 493.015,115.016 493.015,105.007 507.332,105.007 
		507.332,115.016 516.841,115.016 516.841,129.331 507.332,129.331 507.332,169.015 516.841,169.015 516.841,183.331 
		507.332,183.331 507.332,223.015 547.015,223.015 547.015,183.331 535.339,183.331 535.339,169.015 547.015,169.015 
		547.015,129.331 535.339,129.331 535.339,115.016 547.015,115.016 547.015,92.674 561.332,92.674 561.332,115.016 570.841,115.016 
		570.841,129.331 561.332,129.331 561.332,169.015 570.841,169.015 570.841,183.331 561.332,183.331 561.332,223.015 
		601.015,223.015 601.015,183.331 589.339,183.331 589.339,169.015 601.015,169.015 601.015,129.331 589.339,129.331 
		589.339,115.016 601.015,115.016 601.015,92.674 615.332,92.674 615.332,115.016 624.841,115.016 624.841,129.331 615.332,129.331 
		615.332,169.015 624.841,169.015 624.841,183.331 615.332,183.331 615.332,223.015 655.015,223.015 655.015,183.331 
		643.341,183.331 643.341,169.015 655.015,169.015 655.015,129.331 643.341,129.331 643.341,115.016 655.015,115.016 
		655.015,75.331 643.341,75.331 643.341,61.016 	"/>
</g>
<g id="Layer_2">
	<g>
		
			<line fill="none" stroke="#DE2D26" stroke-width="1.4173" stroke-miterlimit="10" x1="42.538" y1="87.466" x2="482.121" y2="87.466"/>
		
			<line fill="none" stroke="#30A048" stroke-width="1.4173" stroke-miterlimit="10" x1="94.705" y1="89.841" x2="482.121" y2="89.841"/>
		
			<line fill="none" stroke="#3D52A4" stroke-width="1.4173" stroke-miterlimit="10" x1="147.08" y1="91.258" x2="482.121" y2="91.258"/>
		
			<line fill="none" stroke="#7B2A90" stroke-width="1.4173" stroke-miterlimit="10" x1="202.705" y1="92.627" x2="482.121" y2="92.627"/>
		
			<line fill="none" stroke="#9F1C26" stroke-width="1.4173" stroke-miterlimit="10" x1="253.83" y1="94.033" x2="482.121" y2="94.033"/>
		
			<line fill="none" stroke="#DED021" stroke-width="1.4173" stroke-miterlimit="10" x1="312.548" y1="95.508" x2="482.121" y2="95.508"/>
		
			<line fill="none" stroke="#4873B9" stroke-width="1.4173" stroke-miterlimit="10" x1="362.048" y1="96.799" x2="482.121" y2="96.799"/>
		
			<line fill="none" stroke="#00AE4D" stroke-width="1.4173" stroke-miterlimit="10" x1="419.289" y1="98.174" x2="482.121" y2="98.174"/>
	</g>
	
		<line fill="none" stroke="#DED021" stroke-width="1.4173" stroke-miterlimit="10" x1="576.423" y1="90.455" x2="524.953" y2="90.455"/>
	
		<line fill="none" stroke="#4873B9" stroke-width="1.4173" stroke-miterlimit="10" x1="645.023" y1="88.966" x2="524.953" y2="88.966"/>
	
		<line fill="none" stroke="#00AE4D" stroke-width="1.4173" stroke-miterlimit="10" x1="531.298" y1="87.591" x2="524.953" y2="87.591"/>
	<g>
		
			<line fill="none" stroke="#68CCE2" stroke-width="1.47" stroke-miterlimit="10" x1="492.953" y1="91.893" x2="635.007" y2="91.893"/>
		
			<line fill="none" stroke="#68CCE2" stroke-width="1.47" stroke-miterlimit="10" x1="42.538" y1="88.841" x2="482.121" y2="88.841"/>
	</g>
	<polyline fill="none" stroke="#FAA722" stroke-width="4" points="517.169,12.092 517.169,21.924 551.835,21.924 551.835,135.924 
		467.835,135.924 467.835,21.924 502.503,21.924 502.503,12.092 	"/>
</g>
<line fill="none" stroke="#DE2D26" stroke-miterlimit="10" x1="42.538" y1="48.674" x2="42.538" y2="200.674"/>
<line fill="none" stroke="#68CCE2" stroke-miterlimit="10" x1="43.673" y1="48.674" x2="43.673" y2="200.674"/>
</svg>
