<?xml version="1.0" encoding="utf-8"?>
<!-- Generator: Adobe Illustrator 15.0.0, SVG Export Plug-In . SVG Version: 6.00 Build 0)  -->
<!DOCTYPE svg PUBLIC "-//W3C//DTD SVG 1.1//EN" "http://www.w3.org/Graphics/SVG/1.1/DTD/svg11.dtd">
<svg version="1.1" id="Layer_1" xmlns="http://www.w3.org/2000/svg" xmlns:xlink="http://www.w3.org/1999/xlink" x="0px" y="0px"
	 width="676.347px" height="244.348px" viewBox="0 0 676.347 244.348" enable-background="new 0 0 676.347 244.348"
	 xml:space="preserve">
<polygon fill="none" stroke="#000000" stroke-width="0.2" points="662.173,14.173 662.173,230.173 14.173,230.173 14.173,14.173 "/>
<circle fill="none" stroke="#000000" stroke-width="0.2" cx="68.173" cy="68.173" r="7.086"/>
<circle fill="none" stroke="#000000" stroke-width="0.2" cx="68.173" cy="176.173" r="7.086"/>
<circle fill="none" stroke="#000000" stroke-width="0.2" cx="608.171" cy="176.173" r="7.086"/>
<circle fill="none" stroke="#000000" stroke-width="0.2" cx="608.171" cy="68.174" r="7.086"/>
<circle fill="none" stroke="#000000" stroke-width="0.2" cx="338.171" cy="176.173" r="7.086"/>
<circle fill="none" stroke="#000000" stroke-width="0.2" cx="338.171" cy="68.174" r="7.086"/>
<rect x="120.675" y="70.007" fill="none" width="120.667" height="80.667"/>
<text transform="matrix(1 0 0 1 120.6753 78.5271)" font-family="'MyriadPro-Regular'" font-size="12">HEMI LAYER HI A </text>
<text transform="matrix(1 0 0 1 120.6753 92.9265)" font-family="'MyriadPro-Regular'" font-size="12">CHUNG CHIAH NEN </text>
<text transform="matrix(1 0 0 1 120.6753 107.3269)" font-family="'MyriadPro-Regular'" font-size="12">CHARH TUR. CHUAN A </text>
<text transform="matrix(1 0 0 1 120.6753 121.7263)" font-family="'MyriadPro-Regular'" font-size="12">KUAAH HIAN NUT A </text>
<text transform="matrix(1 0 0 1 120.6753 136.1267)" font-family="'MyriadPro-Regular'" font-size="12">LUT ANG. CHUAN A </text>
<text transform="matrix(1 0 0 1 120.6753 150.5271)" font-family="'MyriadPro-Regular'" font-size="12">HNUAI A MAM THEI </text>
<rect x="386.673" y="61.674" fill="none" width="127" height="92"/>
<text transform="matrix(1 0 0 1 386.6733 70.1936)" font-family="'MyriadPro-Regular'" font-size="12">OPAQUE PLATE</text>
</svg>
